This is BibTeX, Version 0.99d (TeX Live 2013/Debian)
Capacity: max_strings=35307, hash_size=35307, hash_prime=30011
The top-level auxiliary file: paper.aux
The style file: plain.bst
Database file #1: biblio.bib
You've used 5 entries,
            2118 wiz_defined-function locations,
            532 strings with 4881 characters,
and the built_in function-call counts, 2275 in all, are:
= -- 223
> -- 95
< -- 4
+ -- 38
- -- 32
* -- 168
:= -- 345
add.period$ -- 16
call.type$ -- 5
change.case$ -- 31
chr.to.int$ -- 0
cite$ -- 5
duplicate$ -- 92
empty$ -- 184
format.name$ -- 32
if$ -- 504
int.to.chr$ -- 0
int.to.str$ -- 5
missing$ -- 5
newline$ -- 28
num.names$ -- 10
pop$ -- 35
preamble$ -- 1
purify$ -- 26
quote$ -- 0
skip$ -- 74
stack$ -- 0
substring$ -- 174
swap$ -- 35
text.length$ -- 4
text.prefix$ -- 0
top$ -- 0
type$ -- 20
warning$ -- 0
while$ -- 19
width$ -- 6
write$ -- 59
