\relax 
\providecommand\hyper@newdestlabel[2]{}
\providecommand\HyperFirstAtBeginDocument{\AtBeginDocument}
\HyperFirstAtBeginDocument{\ifx\hyper@anchor\@undefined
\global\let\oldcontentsline\contentsline
\gdef\contentsline#1#2#3#4{\oldcontentsline{#1}{#2}{#3}}
\global\let\oldnewlabel\newlabel
\gdef\newlabel#1#2{\newlabelxx{#1}#2}
\gdef\newlabelxx#1#2#3#4#5#6{\oldnewlabel{#1}{{#2}{#3}}}
\AtEndDocument{\ifx\hyper@anchor\@undefined
\let\contentsline\oldcontentsline
\let\newlabel\oldnewlabel
\fi}
\fi}
\global\let\hyper@last\relax 
\gdef\HyperFirstAtBeginDocument#1{#1}
\providecommand\HyField@AuxAddToFields[1]{}
\providecommand\HyField@AuxAddToCoFields[2]{}
\citation{5940405}
\citation{5940405}
\citation{938381}
\citation{1638022}
\citation{1541316}
\citation{gupta2010blocks}
\bibdata{biblio}
\bibcite{938381}{1}
\bibcite{1638022}{2}
\bibcite{5940405}{3}
\bibcite{gupta2010blocks}{4}
\bibcite{1541316}{5}
\@writefile{toc}{\contentsline {section}{\numberline {1}Introduction}{1}{section.1}}
\@writefile{toc}{\contentsline {paragraph}{}{1}{section*.1}}
\@writefile{toc}{\contentsline {section}{\numberline {2}Related Work}{1}{section.2}}
\@writefile{toc}{\contentsline {paragraph}{}{1}{section*.2}}
\bibstyle{plain}
