^C:\USERS\MICHAEL SMITH\DOCUMENTS\VISUAL STUDIO 2015\PROJECTS\PROJECTLASTPART\PROJECTLASTPART\X64\RELEASE\BP-S.OBJ|C:\USERS\MICHAEL SMITH\DOCUMENTS\VISUAL STUDIO 2015\PROJECTS\PROJECTLASTPART\PROJECTLASTPART\X64\RELEASE\GCOPTIMIZATION.OBJ|C:\USERS\MICHAEL SMITH\DOCUMENTS\VISUAL STUDIO 2015\PROJECTS\PROJECTLASTPART\PROJECTLASTPART\X64\RELEASE\GRAPH.OBJ|C:\USERS\MICHAEL SMITH\DOCUMENTS\VISUAL STUDIO 2015\PROJECTS\PROJECTLASTPART\PROJECTLASTPART\X64\RELEASE\ICM.OBJ|C:\USERS\MICHAEL SMITH\DOCUMENTS\VISUAL STUDIO 2015\PROJECTS\PROJECTLASTPART\PROJECTLASTPART\X64\RELEASE\LINKEDBLOCKLIST.OBJ|C:\USERS\MICHAEL SMITH\DOCUMENTS\VISUAL STUDIO 2015\PROJECTS\PROJECTLASTPART\PROJECTLASTPART\X64\RELEASE\MAXFLOW.OBJ|C:\USERS\MICHAEL SMITH\DOCUMENTS\VISUAL STUDIO 2015\PROJECTS\PROJECTLASTPART\PROJECTLASTPART\X64\RELEASE\MAXPRODBP.OBJ|C:\USERS\MICHAEL SMITH\DOCUMENTS\VISUAL STUDIO 2015\PROJECTS\PROJECTLASTPART\PROJECTLASTPART\X64\RELEASE\MRF.OBJ|C:\USERS\MICHAEL SMITH\DOCUMENTS\VISUAL STUDIO 2015\PROJECTS\PROJECTLASTPART\PROJECTLASTPART\X64\RELEASE\PROJECTLASTPART.OBJ|C:\USERS\MICHAEL SMITH\DOCUMENTS\VISUAL STUDIO 2015\PROJECTS\PROJECTLASTPART\PROJECTLASTPART\X64\RELEASE\REGIONS-MAXPROD.OBJ|C:\USERS\MICHAEL SMITH\DOCUMENTS\VISUAL STUDIO 2015\PROJECTS\PROJECTLASTPART\PROJECTLASTPART\X64\RELEASE\STDAFX.OBJ|C:\USERS\MICHAEL SMITH\DOCUMENTS\VISUAL STUDIO 2015\PROJECTS\PROJECTLASTPART\PROJECTLASTPART\X64\RELEASE\TRW-S.OBJ
C:\WINDOWS\GLOBALIZATION\SORTING\SORTDEFAULT.NLS
C:\OPENCV\BUILD\X64\VC12\LIB\OPENCV_TS300.LIB
C:\OPENCV\BUILD\X64\VC12\LIB\OPENCV_WORLD300.LIB
C:\PROGRAM FILES (X86)\WINDOWS KITS\8.1\LIB\WINV6.3\UM\X64\KERNEL32.LIB
C:\PROGRAM FILES (X86)\WINDOWS KITS\8.1\LIB\WINV6.3\UM\X64\USER32.LIB
C:\PROGRAM FILES (X86)\WINDOWS KITS\8.1\LIB\WINV6.3\UM\X64\GDI32.LIB
C:\PROGRAM FILES (X86)\WINDOWS KITS\8.1\LIB\WINV6.3\UM\X64\WINSPOOL.LIB
C:\PROGRAM FILES (X86)\WINDOWS KITS\8.1\LIB\WINV6.3\UM\X64\COMDLG32.LIB
C:\PROGRAM FILES (X86)\WINDOWS KITS\8.1\LIB\WINV6.3\UM\X64\ADVAPI32.LIB
C:\PROGRAM FILES (X86)\WINDOWS KITS\8.1\LIB\WINV6.3\UM\X64\SHELL32.LIB
C:\PROGRAM FILES (X86)\WINDOWS KITS\8.1\LIB\WINV6.3\UM\X64\OLE32.LIB
C:\PROGRAM FILES (X86)\WINDOWS KITS\8.1\LIB\WINV6.3\UM\X64\OLEAUT32.LIB
C:\PROGRAM FILES (X86)\WINDOWS KITS\8.1\LIB\WINV6.3\UM\X64\UUID.LIB
C:\PROGRAM FILES (X86)\WINDOWS KITS\8.1\LIB\WINV6.3\UM\X64\ODBC32.LIB
C:\PROGRAM FILES (X86)\WINDOWS KITS\8.1\LIB\WINV6.3\UM\X64\ODBCCP32.LIB
C:\USERS\MICHAEL SMITH\DOCUMENTS\VISUAL STUDIO 2015\PROJECTS\PROJECTLASTPART\PROJECTLASTPART\X64\RELEASE\BP-S.OBJ
C:\USERS\MICHAEL SMITH\DOCUMENTS\VISUAL STUDIO 2015\PROJECTS\PROJECTLASTPART\PROJECTLASTPART\X64\RELEASE\GCOPTIMIZATION.OBJ
C:\USERS\MICHAEL SMITH\DOCUMENTS\VISUAL STUDIO 2015\PROJECTS\PROJECTLASTPART\PROJECTLASTPART\X64\RELEASE\GRAPH.OBJ
C:\USERS\MICHAEL SMITH\DOCUMENTS\VISUAL STUDIO 2015\PROJECTS\PROJECTLASTPART\PROJECTLASTPART\X64\RELEASE\ICM.OBJ
C:\USERS\MICHAEL SMITH\DOCUMENTS\VISUAL STUDIO 2015\PROJECTS\PROJECTLASTPART\PROJECTLASTPART\X64\RELEASE\LINKEDBLOCKLIST.OBJ
C:\USERS\MICHAEL SMITH\DOCUMENTS\VISUAL STUDIO 2015\PROJECTS\PROJECTLASTPART\PROJECTLASTPART\X64\RELEASE\MAXFLOW.OBJ
C:\USERS\MICHAEL SMITH\DOCUMENTS\VISUAL STUDIO 2015\PROJECTS\PROJECTLASTPART\PROJECTLASTPART\X64\RELEASE\MAXPRODBP.OBJ
C:\USERS\MICHAEL SMITH\DOCUMENTS\VISUAL STUDIO 2015\PROJECTS\PROJECTLASTPART\PROJECTLASTPART\X64\RELEASE\MRF.OBJ
C:\USERS\MICHAEL SMITH\DOCUMENTS\VISUAL STUDIO 2015\PROJECTS\PROJECTLASTPART\PROJECTLASTPART\X64\RELEASE\PROJECTLASTPART.OBJ
C:\USERS\MICHAEL SMITH\DOCUMENTS\VISUAL STUDIO 2015\PROJECTS\PROJECTLASTPART\PROJECTLASTPART\X64\RELEASE\REGIONS-MAXPROD.OBJ
C:\USERS\MICHAEL SMITH\DOCUMENTS\VISUAL STUDIO 2015\PROJECTS\PROJECTLASTPART\PROJECTLASTPART\X64\RELEASE\STDAFX.OBJ
C:\USERS\MICHAEL SMITH\DOCUMENTS\VISUAL STUDIO 2015\PROJECTS\PROJECTLASTPART\PROJECTLASTPART\X64\RELEASE\TRW-S.OBJ
C:\PROGRAM FILES (X86)\MICROSOFT VISUAL STUDIO 14.0\VC\BIN\X86_AMD64\C2.DLL
C:\PROGRAM FILES (X86)\MICROSOFT VISUAL STUDIO 14.0\VC\LIB\AMD64\MSVCPRT.LIB
C:\PROGRAM FILES (X86)\MICROSOFT VISUAL STUDIO 14.0\VC\LIB\AMD64\MSVCRT.LIB
C:\PROGRAM FILES (X86)\MICROSOFT VISUAL STUDIO 14.0\VC\LIB\AMD64\OLDNAMES.LIB
C:\PROGRAM FILES (X86)\MICROSOFT VISUAL STUDIO 14.0\VC\LIB\AMD64\VCRUNTIME.LIB
C:\PROGRAM FILES (X86)\WINDOWS KITS\10\LIB\10.0.10150.0\UCRT\X64\UCRT.LIB
C:\PROGRAM FILES (X86)\MICROSOFT VISUAL STUDIO 14.0\VC\BIN\X86_AMD64\1033\LINKUI.DLL
C:\PROGRAM FILES (X86)\WINDOWS KITS\8.1\BIN\X86\RC.EXE
C:\PROGRAM FILES (X86)\MICROSOFT VISUAL STUDIO 14.0\VC\BIN\CVTRES.EXE
C:\WINDOWS\SYSTEM32\TZRES.DLL
