^C:\USERS\MICHAEL SMITH\DOCUMENTS\VISUAL STUDIO 2015\PROJECTS\PROJECTLASTPART\PROJECTLASTPART\BP-S.CPP|C:\USERS\MICHAEL SMITH\DOCUMENTS\VISUAL STUDIO 2015\PROJECTS\PROJECTLASTPART\PROJECTLASTPART\GCOPTIMIZATION.CPP|C:\USERS\MICHAEL SMITH\DOCUMENTS\VISUAL STUDIO 2015\PROJECTS\PROJECTLASTPART\PROJECTLASTPART\GRAPH.CPP|C:\USERS\MICHAEL SMITH\DOCUMENTS\VISUAL STUDIO 2015\PROJECTS\PROJECTLASTPART\PROJECTLASTPART\ICM.CPP|C:\USERS\MICHAEL SMITH\DOCUMENTS\VISUAL STUDIO 2015\PROJECTS\PROJECTLASTPART\PROJECTLASTPART\LINKEDBLOCKLIST.CPP|C:\USERS\MICHAEL SMITH\DOCUMENTS\VISUAL STUDIO 2015\PROJECTS\PROJECTLASTPART\PROJECTLASTPART\MAXFLOW.CPP|C:\USERS\MICHAEL SMITH\DOCUMENTS\VISUAL STUDIO 2015\PROJECTS\PROJECTLASTPART\PROJECTLASTPART\MAXPRODBP.CPP|C:\USERS\MICHAEL SMITH\DOCUMENTS\VISUAL STUDIO 2015\PROJECTS\PROJECTLASTPART\PROJECTLASTPART\MRF.CPP|C:\USERS\MICHAEL SMITH\DOCUMENTS\VISUAL STUDIO 2015\PROJECTS\PROJECTLASTPART\PROJECTLASTPART\PROJECTLASTPART.CPP|C:\USERS\MICHAEL SMITH\DOCUMENTS\VISUAL STUDIO 2015\PROJECTS\PROJECTLASTPART\PROJECTLASTPART\REGIONS-MAXPROD.CPP|C:\USERS\MICHAEL SMITH\DOCUMENTS\VISUAL STUDIO 2015\PROJECTS\PROJECTLASTPART\PROJECTLASTPART\STDAFX.CPP|C:\USERS\MICHAEL SMITH\DOCUMENTS\VISUAL STUDIO 2015\PROJECTS\PROJECTLASTPART\PROJECTLASTPART\TRW-S.CPP
C:\USERS\MICHAEL SMITH\DOCUMENTS\VISUAL STUDIO 2015\PROJECTS\PROJECTLASTPART\PROJECTLASTPART\RELEASE\VC140.PDB
C:\USERS\MICHAEL SMITH\DOCUMENTS\VISUAL STUDIO 2015\PROJECTS\PROJECTLASTPART\PROJECTLASTPART\RELEASE\TRW-S.OBJ
C:\USERS\MICHAEL SMITH\DOCUMENTS\VISUAL STUDIO 2015\PROJECTS\PROJECTLASTPART\PROJECTLASTPART\RELEASE\STDAFX.OBJ
C:\USERS\MICHAEL SMITH\DOCUMENTS\VISUAL STUDIO 2015\PROJECTS\PROJECTLASTPART\PROJECTLASTPART\RELEASE\REGIONS-MAXPROD.OBJ
C:\USERS\MICHAEL SMITH\DOCUMENTS\VISUAL STUDIO 2015\PROJECTS\PROJECTLASTPART\PROJECTLASTPART\RELEASE\PROJECTLASTPART.OBJ
C:\USERS\MICHAEL SMITH\DOCUMENTS\VISUAL STUDIO 2015\PROJECTS\PROJECTLASTPART\PROJECTLASTPART\RELEASE\MRF.OBJ
C:\USERS\MICHAEL SMITH\DOCUMENTS\VISUAL STUDIO 2015\PROJECTS\PROJECTLASTPART\PROJECTLASTPART\RELEASE\MAXPRODBP.OBJ
C:\USERS\MICHAEL SMITH\DOCUMENTS\VISUAL STUDIO 2015\PROJECTS\PROJECTLASTPART\PROJECTLASTPART\RELEASE\MAXFLOW.OBJ
C:\USERS\MICHAEL SMITH\DOCUMENTS\VISUAL STUDIO 2015\PROJECTS\PROJECTLASTPART\PROJECTLASTPART\RELEASE\LINKEDBLOCKLIST.OBJ
C:\USERS\MICHAEL SMITH\DOCUMENTS\VISUAL STUDIO 2015\PROJECTS\PROJECTLASTPART\PROJECTLASTPART\RELEASE\ICM.OBJ
C:\USERS\MICHAEL SMITH\DOCUMENTS\VISUAL STUDIO 2015\PROJECTS\PROJECTLASTPART\PROJECTLASTPART\RELEASE\GRAPH.OBJ
C:\USERS\MICHAEL SMITH\DOCUMENTS\VISUAL STUDIO 2015\PROJECTS\PROJECTLASTPART\PROJECTLASTPART\RELEASE\GCOPTIMIZATION.OBJ
C:\USERS\MICHAEL SMITH\DOCUMENTS\VISUAL STUDIO 2015\PROJECTS\PROJECTLASTPART\PROJECTLASTPART\RELEASE\BP-S.OBJ
^C:\USERS\MICHAEL SMITH\DOCUMENTS\VISUAL STUDIO 2015\PROJECTS\PROJECTLASTPART\PROJECTLASTPART\BP-S.CPP
C:\USERS\MICHAEL SMITH\DOCUMENTS\VISUAL STUDIO 2015\PROJECTS\PROJECTLASTPART\PROJECTLASTPART\RELEASE\VC140.PDB
^C:\USERS\MICHAEL SMITH\DOCUMENTS\VISUAL STUDIO 2015\PROJECTS\PROJECTLASTPART\PROJECTLASTPART\GCOPTIMIZATION.CPP
C:\USERS\MICHAEL SMITH\DOCUMENTS\VISUAL STUDIO 2015\PROJECTS\PROJECTLASTPART\PROJECTLASTPART\RELEASE\VC140.PDB
^C:\USERS\MICHAEL SMITH\DOCUMENTS\VISUAL STUDIO 2015\PROJECTS\PROJECTLASTPART\PROJECTLASTPART\GRAPH.CPP
C:\USERS\MICHAEL SMITH\DOCUMENTS\VISUAL STUDIO 2015\PROJECTS\PROJECTLASTPART\PROJECTLASTPART\RELEASE\VC140.PDB
^C:\USERS\MICHAEL SMITH\DOCUMENTS\VISUAL STUDIO 2015\PROJECTS\PROJECTLASTPART\PROJECTLASTPART\ICM.CPP
C:\USERS\MICHAEL SMITH\DOCUMENTS\VISUAL STUDIO 2015\PROJECTS\PROJECTLASTPART\PROJECTLASTPART\RELEASE\VC140.PDB
^C:\USERS\MICHAEL SMITH\DOCUMENTS\VISUAL STUDIO 2015\PROJECTS\PROJECTLASTPART\PROJECTLASTPART\LINKEDBLOCKLIST.CPP
C:\USERS\MICHAEL SMITH\DOCUMENTS\VISUAL STUDIO 2015\PROJECTS\PROJECTLASTPART\PROJECTLASTPART\RELEASE\VC140.PDB
^C:\USERS\MICHAEL SMITH\DOCUMENTS\VISUAL STUDIO 2015\PROJECTS\PROJECTLASTPART\PROJECTLASTPART\MAXFLOW.CPP
C:\USERS\MICHAEL SMITH\DOCUMENTS\VISUAL STUDIO 2015\PROJECTS\PROJECTLASTPART\PROJECTLASTPART\RELEASE\VC140.PDB
^C:\USERS\MICHAEL SMITH\DOCUMENTS\VISUAL STUDIO 2015\PROJECTS\PROJECTLASTPART\PROJECTLASTPART\MAXPRODBP.CPP
C:\USERS\MICHAEL SMITH\DOCUMENTS\VISUAL STUDIO 2015\PROJECTS\PROJECTLASTPART\PROJECTLASTPART\RELEASE\VC140.PDB
^C:\USERS\MICHAEL SMITH\DOCUMENTS\VISUAL STUDIO 2015\PROJECTS\PROJECTLASTPART\PROJECTLASTPART\MRF.CPP
C:\USERS\MICHAEL SMITH\DOCUMENTS\VISUAL STUDIO 2015\PROJECTS\PROJECTLASTPART\PROJECTLASTPART\RELEASE\VC140.PDB
^C:\USERS\MICHAEL SMITH\DOCUMENTS\VISUAL STUDIO 2015\PROJECTS\PROJECTLASTPART\PROJECTLASTPART\REGIONS-MAXPROD.CPP
C:\USERS\MICHAEL SMITH\DOCUMENTS\VISUAL STUDIO 2015\PROJECTS\PROJECTLASTPART\PROJECTLASTPART\RELEASE\VC140.PDB
^C:\USERS\MICHAEL SMITH\DOCUMENTS\VISUAL STUDIO 2015\PROJECTS\PROJECTLASTPART\PROJECTLASTPART\STDAFX.CPP
C:\USERS\MICHAEL SMITH\DOCUMENTS\VISUAL STUDIO 2015\PROJECTS\PROJECTLASTPART\PROJECTLASTPART\RELEASE\VC140.PDB
^C:\USERS\MICHAEL SMITH\DOCUMENTS\VISUAL STUDIO 2015\PROJECTS\PROJECTLASTPART\PROJECTLASTPART\TRW-S.CPP
C:\USERS\MICHAEL SMITH\DOCUMENTS\VISUAL STUDIO 2015\PROJECTS\PROJECTLASTPART\PROJECTLASTPART\RELEASE\VC140.PDB
^C:\USERS\MICHAEL SMITH\DOCUMENTS\VISUAL STUDIO 2015\PROJECTS\PROJECTLASTPART\PROJECTLASTPART\PROJECTLASTPART.CPP
C:\USERS\MICHAEL SMITH\DOCUMENTS\VISUAL STUDIO 2015\PROJECTS\PROJECTLASTPART\PROJECTLASTPART\RELEASE\VC140.PDB
C:\USERS\MICHAEL SMITH\DOCUMENTS\VISUAL STUDIO 2015\PROJECTS\PROJECTLASTPART\PROJECTLASTPART\RELEASE\PROJECTLASTPART.OBJ
