\relax 
\providecommand\hyper@newdestlabel[2]{}
\providecommand\HyperFirstAtBeginDocument{\AtBeginDocument}
\HyperFirstAtBeginDocument{\ifx\hyper@anchor\@undefined
\global\let\oldcontentsline\contentsline
\gdef\contentsline#1#2#3#4{\oldcontentsline{#1}{#2}{#3}}
\global\let\oldnewlabel\newlabel
\gdef\newlabel#1#2{\newlabelxx{#1}#2}
\gdef\newlabelxx#1#2#3#4#5#6{\oldnewlabel{#1}{{#2}{#3}}}
\AtEndDocument{\ifx\hyper@anchor\@undefined
\let\contentsline\oldcontentsline
\let\newlabel\oldnewlabel
\fi}
\fi}
\global\let\hyper@last\relax 
\gdef\HyperFirstAtBeginDocument#1{#1}
\providecommand\HyField@AuxAddToFields[1]{}
\providecommand\HyField@AuxAddToCoFields[2]{}
\@writefile{toc}{\contentsline {section}{\numberline {1}Question 1}{1}{section.1}}
\@writefile{toc}{\contentsline {paragraph}{}{1}{section*.1}}
\@writefile{toc}{\contentsline {paragraph}{}{1}{section*.2}}
\@writefile{toc}{\contentsline {section}{\numberline {2}Question 2}{1}{section.2}}
\@writefile{toc}{\contentsline {paragraph}{}{1}{section*.3}}
\@writefile{toc}{\contentsline {paragraph}{}{2}{section*.4}}
\@writefile{toc}{\contentsline {paragraph}{}{2}{section*.5}}
\@writefile{toc}{\contentsline {paragraph}{}{2}{section*.6}}
\@writefile{lof}{\contentsline {figure}{\numberline {1}{\ignorespaces The 2x4 subplot shows the Fourier Transform of different Gabor filters, shown in insets in the top right. The white lines indicate the KX and KY axes.\relax }}{3}{figure.caption.7}}
\providecommand*\caption@xref[2]{\@setref\relax\@undefined{#1}}
\newlabel{fig:q1a}{{1}{3}{The 2x4 subplot shows the Fourier Transform of different Gabor filters, shown in insets in the top right. The white lines indicate the KX and KY axes.\relax }{figure.caption.7}{}}
\@writefile{lof}{\contentsline {figure}{\numberline {2}{\ignorespaces A color coding showing the orientation and minimum/maximum responses of the "stones" image.\relax }}{3}{figure.caption.8}}
\newlabel{fig:q1b}{{2}{3}{A color coding showing the orientation and minimum/maximum responses of the "stones" image.\relax }{figure.caption.8}{}}
\@writefile{lof}{\contentsline {figure}{\numberline {3}{\ignorespaces A ring showing the color used for different orientations.\relax }}{4}{figure.caption.9}}
\newlabel{fig:colordef}{{3}{4}{A ring showing the color used for different orientations.\relax }{figure.caption.9}{}}
\@writefile{lof}{\contentsline {figure}{\numberline {4}{\ignorespaces A plot showing the response of different Gabor filters in the center region for different disparity values. In this example M = 16, disparity = 4.\relax }}{5}{figure.caption.10}}
\newlabel{fig:16center}{{4}{5}{A plot showing the response of different Gabor filters in the center region for different disparity values. In this example M = 16, disparity = 4.\relax }{figure.caption.10}{}}
\@writefile{lof}{\contentsline {figure}{\numberline {5}{\ignorespaces A plot showing the response of different Gabor filters in the center region for different disparity values. In this example M = 32, disparity = 4.\relax }}{6}{figure.caption.11}}
\newlabel{fig:32center}{{5}{6}{A plot showing the response of different Gabor filters in the center region for different disparity values. In this example M = 32, disparity = 4.\relax }{figure.caption.11}{}}
\@writefile{lof}{\contentsline {figure}{\numberline {6}{\ignorespaces A plot showing the response of different Gabor filters in the surrounding region for different disparity values. In this example M = 16, disparity = 4.\relax }}{7}{figure.caption.12}}
\newlabel{fig:16surround}{{6}{7}{A plot showing the response of different Gabor filters in the surrounding region for different disparity values. In this example M = 16, disparity = 4.\relax }{figure.caption.12}{}}
\@writefile{lof}{\contentsline {figure}{\numberline {7}{\ignorespaces A plot showing the response of different Gabor filters in the surrounding region for different disparity values. In this example M = 32, disparity = 4.\relax }}{8}{figure.caption.13}}
\newlabel{fig:32surround}{{7}{8}{A plot showing the response of different Gabor filters in the surrounding region for different disparity values. In this example M = 32, disparity = 4.\relax }{figure.caption.13}{}}
\@writefile{lof}{\contentsline {figure}{\numberline {8}{\ignorespaces The center square with disparity 8 and a correspondingly blurred background.\relax }}{9}{figure.caption.14}}
\newlabel{fig:disp8blur}{{8}{9}{The center square with disparity 8 and a correspondingly blurred background.\relax }{figure.caption.14}{}}
\@writefile{lof}{\contentsline {figure}{\numberline {9}{\ignorespaces The center square with disparity 16 and a correspondingly blurred background.\relax }}{10}{figure.caption.15}}
\newlabel{fig:disp16blur}{{9}{10}{The center square with disparity 16 and a correspondingly blurred background.\relax }{figure.caption.15}{}}
\@writefile{lof}{\contentsline {figure}{\numberline {10}{\ignorespaces The disparity space diagram for Q2c.\relax }}{11}{figure.caption.16}}
\newlabel{fig:scan}{{10}{11}{The disparity space diagram for Q2c.\relax }{figure.caption.16}{}}
